{
  "template": {
    "tag": "cells-template-paper-drawer-panel",
    "properties": {
      "disableEdgeSwipe": true,
      "headerFixed": true
    }
  },
  "components": [
    {
      "zone": "app__header",
      "tag": "cells-component-app-header",
      "properties": {
        "text": "Alta de Usuario"
      }
    },
    {
      "zone": "app__main",
      "familyPath": "../elements/register-dm",
      "tag": "register-dm",
      "properties": {
        "cellsConnections": {
          "in": {
            "ch_doRegister": {
              "bind": "doPostUser"
            }
          },
          "out": {
            "ch_doPostUser_start" : {
              "bind": "doPostUser-start"
            },
            "ch_doPostUser_success" : {
              "bind": "doPostUser-success",
              "link":{
                  "page": "login"
                }
            },
            "ch_doPostUser_error" : {
              "bind": "doPostUser-error"
            }
          }
        }
      }
    },
    {
      "zone": "app__main",
      "familyPath": "../elements/register-vw",
      "tag": "register-vw",
      "properties": {
        "cellsConnections": {
          "in": {
            "ch_doPostUser_error": {
              "bind": "doPostUserError"
            },
            "ch_register": {
              "bind": "resetView"
            }
          },
          "out": {
            "ch_doRegister" : {
              "bind": "doRegister"
            },
            "ch_doCancelRegister" : {
              "bind": "doCancelRegister",
              "link":{
                "page": "login"
              }
            }
          }
        }
      }
    },
    {
      "zone": "app__main",
      "tag": "cells-molecule-spinner-veil",
      "properties": {
        "cellsConnections": {
          "in": {
            "ch_doPostUser_start": {
              "bind": "show"
            },
            "ch_doPostUser_success": {
              "bind": "hide"
            },
            "ch_doPostUser_error": {
              "bind": "hide"
            }
          },
          "out": {
          }
        }
      }
    }
  ]
}
